…
Get system requirements for the entire repository.

``` r
# default distro is ubuntu
(repo_sysreqs <- get_repo_sysreqs(1))
#> # A tibble: 726 x 5
#>    name               system_reqs install_scripts pre_install post_install    
#>    <chr>              <list>      <list>          <list>      <list>          
#>  1 rkafka             <chr [1]>   <chr [1]>       <lgl [1]>   <df[,1] [1 × 1]>
#>  2 rriskDistributions <chr [4]>   <chr [4]>       <lgl [1]>   <lgl [1]>       
#>  3 bdpopt             <chr [1]>   <chr [1]>       <lgl [1]>   <lgl [1]>       
#>  4 RWebLogo           <chr [1]>   <chr [1]>       <lgl [1]>   <lgl [1]>       
#>  5 gdata              <chr [1]>   <chr [1]>       <lgl [1]>   <lgl [1]>       
#>  6 mailR              <chr [1]>   <chr [1]>       <lgl [1]>   <df[,1] [1 × 1]>
#>  7 DeducerText        <chr [1]>   <chr [1]>       <lgl [1]>   <df[,1] [1 × 1]>
#>  8 gbp                <chr [1]>   <chr [1]>       <lgl [1]>   <lgl [1]>       
#>  9 prevalence         <chr [1]>   <chr [1]>       <lgl [1]>   <lgl [1]>       
#> 10 dataframes2xls     <chr [1]>   <chr [1]>       <lgl [1]>   <lgl [1]>       
#> # … with 716 more rows
```
…
